Create Interactive Visualisation of Taxonomic Hierarchy • simpleTaxonomy
…
name: the common name of the taxon that is defined by the row.

scientific: the scientific name of the taxon.

rank: the rank of the taxon.

image_url: the URL to an image of the current taxon. This column is optional and image URLs can be filled in automatically from Wikipedia.

The order of the rows is irrelevant. For the tree to be valid, there must be exactly one root taxon, which has no parent. In addition, all taxa that are used as parents must also be defined in their own row. The common names of the taxa (column name) as well as the scientific names (column scientific) must be unique.

Currently, only German ranks are supported. You can obtain the list of supported ranks as follows:

available_ranks()
#> # A tibble: 21 × 2
#>    level de         
#>    <int> <chr>      
#>  1     1 Lebewesen  
#>  2     2 Domäne     
#>  3     3 Reich      
#>  4     4 Stamm      
#>  5     5 Unterstamm 
#>  6     6 Überklasse 
#>  7     7 Klasse     
#>  8     8 Unterklasse
#>  9     9 Teilklasse 
#> 10    10 Überordnung
#> # ℹ 11 more rows
…
