…
The order of the rows is irrelevant. For the tree to be valid, there
must be exactly one root taxon, which has no parent. In addition, all
taxa that are used as parents must also be defined in their own row. The
common names of the taxa (column `name`) as well as the scientific names
(column `scientific`) must be unique.

Currently, only German ranks are supported. You can obtain the list of
supported ranks as follows:

``` r
available_ranks()
#> # A tibble: 28 × 2
#>    level de         
#>    <int> <chr>      
#>  1     1 Lebewesen  
#>  2     2 Domäne     
#>  3     3 Reich      
#>  4     4 Stamm      
#>  5     5 Unterstamm 
#>  6     6 Teilstamm  
#>  7     7 Überklasse 
#>  8     8 Klasse     
#>  9     9 Unterklasse
#> 10    10 Teilklasse 
#> # ℹ 18 more rows
```
…
