…
## Examples

``` r
file <- get_example_taxonomy_file()
taxonomy <- read_taxonomy(file)
class(taxonomy)
#> [1] "taxonomy_graph" "igraph"        
as_tibble(taxonomy)
#> # A tibble: 96 × 5
#>    parent       name         scientific               rank         image_url    
#>    <chr>        <chr>        <chr>                    <chr>        <chr>        
#>  1 NA           Raubtiere    Carnivora                Ordnung      https://uplo…
#>  2 Raubtiere    Hundeartige  Caniformia               Unterordnung https://uplo…
#>  3 Hundeartige  Hunde        Canidae                  Familie      https://uplo…
#>  4 Hunde        Echte Füchse Vulpini                  Tribus       https://uplo…
#>  5 Echte Füchse Vulpes       Vulpes                   Gattung      https://uplo…
#>  6 Vulpes       Polarfuchs   Vulpes lagopus           Art          https://uplo…
#>  7 Vulpes       Rotfuchs     Vulpes vulpes            Art          https://uplo…
#>  8 Vulpes       Wüstenfuchs  Vulpes zerda             Art          https://uplo…
#>  9 Echte Füchse Marderhund   Nyctereutes procyonoides Art          https://uplo…
#> 10 Hunde        Echte Hunde  Canini                   Tribus       https://uplo…
#> # ℹ 86 more rows
```
